<svg xmlns="http://www.w3.org/2000/svg" viewBox="0 0 512 512" width="512" height="512">
    <defs>
        <style>
        .cls-1 {
            fill: #007bff;
        }

        .cls-2 {
            fill: #fff;
        }
        </style>
    </defs>
    <title>Asset 4</title>
    <g id="Layer_2" data-name="Layer 2">
        <g id="Layer_1-2" data-name="Layer 1">
            <rect class="cls-1" width="512" height="512" />
            <path class="cls-2" d="M134.5,102.38h77.26V229L317,102.38h91.67L285.1,250.8,416.93,407.52H325.26L211.76,272.63V407.52H134.5Z" />
        </g>
    </g>
</svg>